ClassPrep5
…
theme_set(theme_minimal())
hpi_df <- read_csv(here("Class Prep/data/hpi-tidy.csv"))

Rows: 151 Columns: 11
── Column specification ────────────────────────────────────────────────────────
Delimiter: ","
chr (3): Country, GovernanceRank, Region
dbl (8): HPIRank, LifeExpectancy, Wellbeing, HappyLifeYears, Footprint, Happ...

ℹ Use `spec()` to retrieve the full column specification for this data.
ℹ Specify the column types or set `show_col_types = FALSE` to quiet this message.

hpi_df

# A tibble: 151 × 11
   HPIRank Country     LifeExpectancy Wellbeing HappyLifeYears Footprint
     <dbl> <chr>                <dbl>     <dbl>          <dbl>     <dbl>
 1     109 Afghanistan           48.7      4.76           29.0     0.540
 2      18 Albania               76.9      5.27           48.8     1.81 
 3      26 Algeria               73.1      5.24           46.2     1.65 
 4     127 Angola                51.1      4.21           28.2     0.891
 5      17 Argentina             75.9      6.44           55.0     2.71 
 6      53 Armenia               74.2      4.37           41.9     1.73 
 7      76 Australia             81.9      7.41           65.5     6.68 
 8      48 Austria               80.9      7.35           64.3     5.29 
 9      80 Azerbaijan            70.7      4.22           39.1     1.97 
10     146 Bahrain               75.1      4.55           43.5     6.65 
# ℹ 141 more rows
# ℹ 5 more variables: HappyPlanetIndex <dbl>, Population <dbl>,
#   GDPcapita <dbl>, GovernanceRank <chr>, Region <chr>
…
